inst#	buyer	order Qty
VarChar	VarChar	VarChar
1400001	NIKE	1200
1400002	NIKE	1200
1400003	NIKE	240
1400004	REEBOK	1000
1400005	M&N	24000
1400006	REEBOK	2400
1400007	FLEXFIT	1500
1400008	FOX RACING	1000
1400009	NIKE	480
1400010	FLEXFIT	360
1400011	KANGOL	720
1400012	REEBOK	4200
1400013	NFL	6000
1400014	BILLABONG	1000
1400015	FLEXFIT	1200
1400016	REEBOK	360
1400017	NIKE	1200
1400018	MLB	3600
1400019	KANGOL	4800
1400020	HOOEY	7600